Library\Bee\artifacts\mvdfrm\Unity.2D.Animation.Editor.ref.dll_A13BD6459BB26E0B.mvfrm
Library\Bee\artifacts\mvdfrm\Unity.2D.Animation.Runtime.ref.dll_6747672A37E369F0.mvfrm
Library\Bee\artifacts\mvdfrm\Unity.2D.Common.Editor.ref.dll_BD59A5CBF9D52B22.mvfrm
Library\Bee\artifacts\mvdfrm\Unity.2D.Common.Runtime.ref.dll_77798F371487C3E9.mvfrm
Library\Bee\artifacts\mvdfrm\Unity.2D.IK.Editor.ref.dll_F60355C05B38283B.mvfrm
Library\Bee\artifacts\mvdfrm\Unity.2D.IK.Runtime.ref.dll_16F22BA31A1D34C0.mvfrm
Library\Bee\artifacts\mvdfrm\Unity.2D.Path.Editor.ref.dll_583975DB52C81A78.mvfrm
Library\Bee\artifacts\mvdfrm\Unity.2D.PixelPerfect.Editor.ref.dll_500201FE28D4C516.mvfrm
Library\Bee\artifacts\mvdfrm\Unity.2D.PixelPerfect.ref.dll_88C9F7A57CCB704B.mvfrm
Library\Bee\artifacts\mvdfrm\Unity.2D.Psdimporter.Editor.ref.dll_B76AC6E0D8C9839C.mvfrm
Library\Bee\artifacts\mvdfrm\Unity.2D.Sprite.Editor.ref.dll_DDBAA27A82CE9E28.mvfrm
Library\Bee\artifacts\mvdfrm\Unity.2D.SpriteShape.Editor.ref.dll_1AEEC37E15960FB3.mvfrm
Library\Bee\artifacts\mvdfrm\Unity.2D.SpriteShape.Runtime.ref.dll_BCD600250821B9C8.mvfrm
Library\Bee\artifacts\mvdfrm\Unity.2D.Tilemap.Editor.ref.dll_436C0E2610862891.mvfrm
Library\Bee\artifacts\mvdfrm\Unity.2D.Tilemap.Extras.Editor.ref.dll_8DA00406C36CC6AA.mvfrm
Library\Bee\artifacts\mvdfrm\Unity.2D.Tilemap.Extras.ref.dll_371E356D6F5B6577.mvfrm
Library\Bee\artifacts\mvdfrm\Unity.Burst.Editor.ref.dll_E2F92DAB6C167CC9.mvfrm
Library\Bee\artifacts\mvdfrm\Unity.Burst.ref.dll_F30DFA20C0DD1968.mvfrm
Library\Bee\artifacts\mvdfrm\Unity.InternalAPIEditorBridge.001.ref.dll_C275F416F58A86FE.mvfrm
Library\Bee\artifacts\mvdfrm\Unity.InternalAPIEngineBridge.001.ref.dll_B4F0ACC15A996E43.mvfrm
Library\Bee\artifacts\mvdfrm\Unity.Mathematics.Editor.ref.dll_9A20CFD48BC11F43.mvfrm
Library\Bee\artifacts\mvdfrm\Unity.Mathematics.ref.dll_E8EFDB1B8D5C174E.mvfrm
Library\Bee\artifacts\mvdfrm\Unity.PlasticSCM.Editor.ref.dll_257AEB342BE77856.mvfrm
Library\Bee\artifacts\mvdfrm\Unity.Rider.Editor.ref.dll_9B5591808ABA37AF.mvfrm
Library\Bee\artifacts\mvdfrm\Unity.Services.Core.Analytics.ref.dll_EDA1682A714EA6BF.mvfrm
Library\Bee\artifacts\mvdfrm\Unity.Services.Core.Environments.ref.dll_7E0AC2CDE81D9C6D.mvfrm
Library\Bee\artifacts\mvdfrm\Unity.Services.Core.ref.dll_131AC9C5EC6E6517.mvfrm
Library\Bee\artifacts\mvdfrm\Unity.TextMeshPro.Editor.ref.dll_159E061D77A10B86.mvfrm
Library\Bee\artifacts\mvdfrm\Unity.TextMeshPro.ref.dll_84A4293DBDD182DB.mvfrm
Library\Bee\artifacts\mvdfrm\Unity.Timeline.Editor.ref.dll_0D3D3C0B73557612.mvfrm
Library\Bee\artifacts\mvdfrm\Unity.Timeline.ref.dll_621CDDF9C514DF8F.mvfrm
Library\Bee\artifacts\mvdfrm\Unity.VSCode.Editor.ref.dll_3628369EB48E4C19.mvfrm
Library\Bee\artifacts\mvdfrm\Unity.VisualScripting.Core.Editor.ref.dll_EDC8690F57C5BDFD.mvfrm
Library\Bee\artifacts\mvdfrm\Unity.VisualScripting.Core.ref.dll_D75DF4EA1AFE54F4.mvfrm
Library\Bee\artifacts\mvdfrm\Unity.VisualScripting.Flow.Editor.ref.dll_6AF951BE66A4493E.mvfrm
Library\Bee\artifacts\mvdfrm\Unity.VisualScripting.Flow.ref.dll_1E6ED5409D07C9A3.mvfrm
Library\Bee\artifacts\mvdfrm\Unity.VisualScripting.SettingsProvider.Editor.ref.dll_A1A44354E0B583A8.mvfrm
Library\Bee\artifacts\mvdfrm\Unity.VisualScripting.Shared.Editor.ref.dll_9669F6EBFF6DFFB7.mvfrm
Library\Bee\artifacts\mvdfrm\Unity.VisualScripting.State.Editor.ref.dll_E03858E727F23F6F.mvfrm
Library\Bee\artifacts\mvdfrm\Unity.VisualScripting.State.ref.dll_D91762B7076BE462.mvfrm
Library\Bee\artifacts\mvdfrm\Unity.VisualStudio.Editor.ref.dll_3A975DBA53ABA4AD.mvfrm
Library\Bee\artifacts\mvdfrm\UnityEditor.UI.ref.dll_4C98D3F7040CD4F5.mvfrm
Library\Bee\artifacts\mvdfrm\UnityEngine.UI.ref.dll_08FEAA520A2EFD60.mvfrm
Library\Bee\artifacts\mvdfrm\UnityEditor.CoreModule.dll_6A0E3C83AB1C547A.mvfrm
Library\Bee\artifacts\mvdfrm\UnityEditor.DeviceSimulatorModule.dll_C8CCEC54696CB867.mvfrm
Library\Bee\artifacts\mvdfrm\UnityEditor.DiagnosticsModule.dll_701B2499A479F8F5.mvfrm
Library\Bee\artifacts\mvdfrm\UnityEditor.dll_1A20837C61206BFB.mvfrm
Library\Bee\artifacts\mvdfrm\UnityEditor.GraphViewModule.dll_E8FFDE1687A2102C.mvfrm
Library\Bee\artifacts\mvdfrm\UnityEditor.PackageManagerUIModule.dll_2FA64D879ED94D56.mvfrm
Library\Bee\artifacts\mvdfrm\UnityEditor.QuickSearchModule.dll_FB2AA5A6FD50F54E.mvfrm
Library\Bee\artifacts\mvdfrm\UnityEditor.SceneTemplateModule.dll_2AEA103EDC26098F.mvfrm
Library\Bee\artifacts\mvdfrm\UnityEditor.TextCoreFontEngineModule.dll_C1F6DC31BAB194B8.mvfrm
Library\Bee\artifacts\mvdfrm\UnityEditor.TextCoreTextEngineModule.dll_09DF12A34A354DD6.mvfrm
Library\Bee\artifacts\mvdfrm\UnityEditor.UIBuilderModule.dll_3D888B32FA5A8960.mvfrm
Library\Bee\artifacts\mvdfrm\UnityEditor.UIElementsModule.dll_66523C84BEBA7576.mvfrm
Library\Bee\artifacts\mvdfrm\UnityEditor.UIElementsSamplesModule.dll_36B074A987FFF557.mvfrm
Library\Bee\artifacts\mvdfrm\UnityEditor.UIServiceModule.dll_767A9C95E391D97A.mvfrm
Library\Bee\artifacts\mvdfrm\UnityEditor.UnityConnectModule.dll_6253210524A14030.mvfrm
Library\Bee\artifacts\mvdfrm\UnityEngine.AccessibilityModule.dll_5D8F7BD5DC9C312C.mvfrm
Library\Bee\artifacts\mvdfrm\UnityEngine.AIModule.dll_081E4440732D578E.mvfrm
Library\Bee\artifacts\mvdfrm\UnityEngine.AndroidJNIModule.dll_E49B255807D9E44C.mvfrm
Library\Bee\artifacts\mvdfrm\UnityEngine.AnimationModule.dll_B7855A3F61FEE4D2.mvfrm
Library\Bee\artifacts\mvdfrm\UnityEngine.ARModule.dll_C1910943D04AB657.mvfrm
Library\Bee\artifacts\mvdfrm\UnityEngine.AssetBundleModule.dll_3F13D8985FB7AA40.mvfrm
Library\Bee\artifacts\mvdfrm\UnityEngine.AudioModule.dll_674FEF3E793FC144.mvfrm
Library\Bee\artifacts\mvdfrm\UnityEngine.ClothModule.dll_CE384C39535CA028.mvfrm
Library\Bee\artifacts\mvdfrm\UnityEngine.ClusterInputModule.dll_E1EF961AD62912F6.mvfrm
Library\Bee\artifacts\mvdfrm\UnityEngine.ClusterRendererModule.dll_CE79AEC5D927C5EB.mvfrm
Library\Bee\artifacts\mvdfrm\UnityEngine.CoreModule.dll_8D2F0FD65321BFA5.mvfrm
Library\Bee\artifacts\mvdfrm\UnityEngine.CrashReportingModule.dll_F4D603238E540C5D.mvfrm
Library\Bee\artifacts\mvdfrm\UnityEngine.DirectorModule.dll_0C6A958B9FC24F02.mvfrm
Library\Bee\artifacts\mvdfrm\UnityEngine.dll_4CC4CA54BF93F8E0.mvfrm
Library\Bee\artifacts\mvdfrm\UnityEngine.DSPGraphModule.dll_11BBF6F512232023.mvfrm
Library\Bee\artifacts\mvdfrm\UnityEngine.GameCenterModule.dll_0EE86F72CE1AD53D.mvfrm
Library\Bee\artifacts\mvdfrm\UnityEngine.GIModule.dll_A05A8D4E0EDC3FA8.mvfrm
Library\Bee\artifacts\mvdfrm\UnityEngine.GridModule.dll_6AA02BC46B76559C.mvfrm
Library\Bee\artifacts\mvdfrm\UnityEngine.HotReloadModule.dll_38CE18453D320054.mvfrm
Library\Bee\artifacts\mvdfrm\UnityEngine.ImageConversionModule.dll_3A6BAC765B4C7DDF.mvfrm
Library\Bee\artifacts\mvdfrm\UnityEngine.IMGUIModule.dll_9FAF8EA53F715525.mvfrm
Library\Bee\artifacts\mvdfrm\UnityEngine.InputLegacyModule.dll_D058F3B6F7A96031.mvfrm
Library\Bee\artifacts\mvdfrm\UnityEngine.InputModule.dll_CDC5B6EEEF77E5E8.mvfrm
Library\Bee\artifacts\mvdfrm\UnityEngine.JSONSerializeModule.dll_BDA70511DBD791B6.mvfrm
Library\Bee\artifacts\mvdfrm\UnityEngine.LocalizationModule.dll_203C606D6DA505EF.mvfrm
Library\Bee\artifacts\mvdfrm\UnityEngine.ParticleSystemModule.dll_47E84C6FFC6597EB.mvfrm
Library\Bee\artifacts\mvdfrm\UnityEngine.PerformanceReportingModule.dll_875D11DA75683964.mvfrm
Library\Bee\artifacts\mvdfrm\UnityEngine.Physics2DModule.dll_042B4A3002FBDC67.mvfrm
Library\Bee\artifacts\mvdfrm\UnityEngine.PhysicsModule.dll_3A29971D8EFDFC95.mvfrm
Library\Bee\artifacts\mvdfrm\UnityEngine.ProfilerModule.dll_3EB0CEC2391BD60F.mvfrm
Library\Bee\artifacts\mvdfrm\UnityEngine.RuntimeInitializeOnLoadManagerInitializerModule.dll_DC64854D19E89B30.mvfrm
Library\Bee\artifacts\mvdfrm\UnityEngine.ScreenCaptureModule.dll_D78EB296F043BE18.mvfrm
Library\Bee\artifacts\mvdfrm\UnityEngine.SharedInternalsModule.dll_BE7CEB4BD27A792F.mvfrm
Library\Bee\artifacts\mvdfrm\UnityEngine.SpriteMaskModule.dll_F814E202EF8A6AB7.mvfrm
Library\Bee\artifacts\mvdfrm\UnityEngine.SpriteShapeModule.dll_587505F31559E24A.mvfrm
Library\Bee\artifacts\mvdfrm\UnityEngine.StreamingModule.dll_6C1A478FB1869C10.mvfrm
Library\Bee\artifacts\mvdfrm\UnityEngine.SubstanceModule.dll_48C55BD8FCD99A1E.mvfrm
Library\Bee\artifacts\mvdfrm\UnityEngine.SubsystemsModule.dll_62C24864BDD252CA.mvfrm
Library\Bee\artifacts\mvdfrm\UnityEngine.TerrainModule.dll_5470128C64BC4583.mvfrm
Library\Bee\artifacts\mvdfrm\UnityEngine.TerrainPhysicsModule.dll_4862F54315A89278.mvfrm
Library\Bee\artifacts\mvdfrm\UnityEngine.TextCoreFontEngineModule.dll_40565784CDAF5383.mvfrm
Library\Bee\artifacts\mvdfrm\UnityEngine.TextCoreTextEngineModule.dll_883E8DF65D330CA1.mvfrm
Library\Bee\artifacts\mvdfrm\UnityEngine.TextRenderingModule.dll_00CE24A1A77B3E0D.mvfrm
Library\Bee\artifacts\mvdfrm\UnityEngine.TilemapModule.dll_F36C7A0D7C79268C.mvfrm
Library\Bee\artifacts\mvdfrm\UnityEngine.TLSModule.dll_464160C1721BA029.mvfrm
Library\Bee\artifacts\mvdfrm\UnityEngine.UIElementsModule.dll_6700A9CCC0FE8EC1.mvfrm
Library\Bee\artifacts\mvdfrm\UnityEngine.UIElementsNativeModule.dll_7A20021D1051BD78.mvfrm
Library\Bee\artifacts\mvdfrm\UnityEngine.UIModule.dll_0391E26DCF745D3A.mvfrm
Library\Bee\artifacts\mvdfrm\UnityEngine.UmbraModule.dll_E2249B5706666CB7.mvfrm
Library\Bee\artifacts\mvdfrm\UnityEngine.UNETModule.dll_1FD557BFA030B51E.mvfrm
Library\Bee\artifacts\mvdfrm\UnityEngine.UnityAnalyticsModule.dll_6787BD39A88CE9E7.mvfrm
Library\Bee\artifacts\mvdfrm\UnityEngine.UnityConnectModule.dll_4FB2A5141F2940DB.mvfrm
Library\Bee\artifacts\mvdfrm\UnityEngine.UnityCurlModule.dll_EAA1FB70D212D6BF.mvfrm
Library\Bee\artifacts\mvdfrm\UnityEngine.UnityTestProtocolModule.dll_F2732A9BE1FB4AAD.mvfrm
Library\Bee\artifacts\mvdfrm\UnityEngine.UnityWebRequestAssetBundleModule.dll_1263ABA034EFA1F8.mvfrm
Library\Bee\artifacts\mvdfrm\UnityEngine.UnityWebRequestAudioModule.dll_FF5965B8FBD303FC.mvfrm
Library\Bee\artifacts\mvdfrm\UnityEngine.UnityWebRequestModule.dll_4C0AB4206641185E.mvfrm
Library\Bee\artifacts\mvdfrm\UnityEngine.UnityWebRequestTextureModule.dll_6BBC6D270AD83151.mvfrm
Library\Bee\artifacts\mvdfrm\UnityEngine.UnityWebRequestWWWModule.dll_5300D3524CF2C90D.mvfrm
Library\Bee\artifacts\mvdfrm\UnityEngine.VehiclesModule.dll_842D8F0B19EC1E9D.mvfrm
Library\Bee\artifacts\mvdfrm\UnityEngine.VFXModule.dll_C71FF93048890996.mvfrm
Library\Bee\artifacts\mvdfrm\UnityEngine.VideoModule.dll_8C5973A93BD1DCE9.mvfrm
Library\Bee\artifacts\mvdfrm\UnityEngine.VirtualTexturingModule.dll_9EACB68BE9003E03.mvfrm
Library\Bee\artifacts\mvdfrm\UnityEngine.VRModule.dll_566408F3712EE2B2.mvfrm
Library\Bee\artifacts\mvdfrm\UnityEngine.WindModule.dll_037DEAFEE4583E0E.mvfrm
Library\Bee\artifacts\mvdfrm\UnityEngine.XRModule.dll_8922CBF7FA693010.mvfrm
Library\Bee\artifacts\mvdfrm\Unity.Burst.Cecil.dll_1FAB4D9018290C8A.mvfrm
Library\Bee\artifacts\mvdfrm\Unity.Burst.Cecil.Mdb.dll_CBAF53D6E32E2247.mvfrm
Library\Bee\artifacts\mvdfrm\Unity.Burst.Cecil.Pdb.dll_E301CC4661E323CA.mvfrm
Library\Bee\artifacts\mvdfrm\Unity.Burst.Cecil.Rocks.dll_3CE581A88FB6612A.mvfrm
Library\Bee\artifacts\mvdfrm\Unity.Burst.Unsafe.dll_EEA71707F679E4E9.mvfrm
Library\Bee\artifacts\mvdfrm\Unity.VisualScripting.Antlr3.Runtime.dll_714E4EBD784E3F31.mvfrm